<svg xmlns="http://www.w3.org/2000/svg" width="721" height="679" viewBox="0 0 721 679">
  <path id="Rectangle" d="M0,0H721V679H0Z" fill="#b019d4" style="mix-blend-mode: overlay;isolation: isolate"/>
</svg>
