<svg xmlns="http://www.w3.org/2000/svg" width="26" height="14.727" viewBox="0 0 26 14.727">
  <g id="Group" transform="translate(1 0.364)">
    <path id="Line_2" data-name="Line 2" d="M0,.636H24" transform="translate(0 12.727)" fill="none" stroke="#fff" stroke-linecap="square" stroke-miterlimit="10" stroke-width="2"/>
    <path id="Line_2_Copy" data-name="Line 2 Copy" d="M0,.636H24" fill="none" stroke="#fff" stroke-linecap="square" stroke-miterlimit="10" stroke-width="2"/>
  </g>
</svg>
