<?xml version="1.0" encoding="utf-8"?>
<!-- Generator: Adobe Illustrator 21.0.0, SVG Export Plug-In . SVG Version: 6.00 Build 0)  -->
<svg version="1.1" id="Layer_1" xmlns="http://www.w3.org/2000/svg" xmlns:xlink="http://www.w3.org/1999/xlink" x="0px" y="0px"
	 viewBox="0 0 1439.7 107.8" style="enable-background:new 0 0 1439.7 107.8;" xml:space="preserve">
<style type="text/css">
	.st0{fill:#1B1926;}
</style>
<path class="st0" d="M719.8,0l719.8,107.8l-121.5,0L0,107.8L719.8,0z"/>
</svg>
